<?xml version="1.0" encoding="UTF-8" standalone="no"?>
<svg width="155px" height="152px" viewBox="0 0 155 152" version="1.1" xmlns="http://www.w3.org/2000/svg" xmlns:xlink="http://www.w3.org/1999/xlink" xmlns:sketch="http://www.bohemiancoding.com/sketch/ns">
    <!-- Generator: Sketch 3.3.2 (12043) - http://www.bohemiancoding.com/sketch -->
    <title>Untitled</title>
    <desc>Created with Sketch.</desc>
    <defs></defs>
    <g id="Page-1" stroke="none" stroke-width="1" fill="none" fill-rule="evenodd" sketch:type="MSPage">
        <g id="noun_64335_cc" sketch:type="MSLayerGroup" transform="translate(0.500000, 0.000000)" fill="#FFFFFF">
            <path d="M5.92307692,71.7777778 L27.0769231,71.7777778 L27.0769231,147.777778 C27.0769231,150.142222 28.9384615,152 31.3076923,152 L124.384615,152 C126.753846,152 128.615385,150.142222 128.615385,147.777778 L128.615385,71.7777778 L149.769231,71.7777778 C151.461538,71.7777778 153.153846,70.7644444 153.661538,69.0755556 C154.338462,67.3866667 153.830769,65.5288889 152.476923,64.3466667 L80.7230769,1.01333333 C79.2,-0.337777778 76.6615385,-0.337777778 75.1384615,1.01333333 L3.04615385,64.3466667 C1.69230769,65.5288889 1.18461538,67.3866667 1.86153846,69.0755556 C2.53846154,70.7644444 4.23076923,71.7777778 5.92307692,71.7777778 L5.92307692,71.7777778 Z M86.3076923,143.555556 L69.3846154,143.555556 L69.3846154,97.1111111 L86.3076923,97.1111111 L86.3076923,143.555556 L86.3076923,143.555556 Z M77.8461538,9.79555556 L138.6,63.3333333 L124.384615,63.3333333 C122.015385,63.3333333 120.153846,65.1911111 120.153846,67.5555556 L120.153846,143.555556 L94.7692308,143.555556 L94.7692308,92.8888889 C94.7692308,90.5244444 92.9076923,88.6666667 90.5384615,88.6666667 L65.1538462,88.6666667 C62.7846154,88.6666667 60.9230769,90.5244444 60.9230769,92.8888889 L60.9230769,143.555556 L35.5384615,143.555556 L35.5384615,67.5555556 C35.5384615,65.1911111 33.6769231,63.3333333 31.3076923,63.3333333 L17.0923077,63.3333333 L77.8461538,9.79555556 L77.8461538,9.79555556 Z" id="Shape" sketch:type="MSShapeGroup"></path>
            <path d="M65.1538462,71.7777778 L90.5384615,71.7777778 C92.9076923,71.7777778 94.7692308,69.92 94.7692308,67.5555556 L94.7692308,42.2222222 C94.7692308,39.8577778 92.9076923,38 90.5384615,38 L65.1538462,38 C62.7846154,38 60.9230769,39.8577778 60.9230769,42.2222222 L60.9230769,67.5555556 C60.9230769,69.92 62.7846154,71.7777778 65.1538462,71.7777778 L65.1538462,71.7777778 Z M69.3846154,46.4444444 L86.3076923,46.4444444 L86.3076923,63.3333333 L69.3846154,63.3333333 L69.3846154,46.4444444 L69.3846154,46.4444444 Z" id="Shape" sketch:type="MSShapeGroup"></path>
        </g>
    </g>
</svg>